…
```r
structure(deserts)
```

```
## # A tibble: 34,786 × 13
##    record…¹ month   day  year plot_id speci…² sex   hindf…³ weight genus species
##       <dbl> <dbl> <dbl> <dbl>   <dbl> <chr>   <chr>   <dbl>  <dbl> <chr> <chr>  
##  1        1     7    16  1977       2 NL      M          32     NA Neot… albigu…
##  2        2     7    16  1977       3 NL      M          33     NA Neot… albigu…
##  3        3     7    16  1977       2 DM      F          37     NA Dipo… merria…
##  4        4     7    16  1977       7 DM      M          36     NA Dipo… merria…
##  5        5     7    16  1977       3 DM      M          35     NA Dipo… merria…
##  6        6     7    16  1977       1 PF      M          14     NA Pero… flavus 
##  7        7     7    16  1977       2 PE      F          NA     NA Pero… eremic…
##  8        8     7    16  1977       1 DM      M          37     NA Dipo… merria…
##  9        9     7    16  1977       1 DM      F          34     NA Dipo… merria…
## 10       10     7    16  1977       6 PF      F          20     NA Pero… flavus 
## # … with 34,776 more rows, 2 more variables: taxa <chr>, plot_type <chr>, and
## #   abbreviated variable names ¹​record_id, ²​species_id, ³​hindfoot_length
```
…
9. Which two species have, on average, the highest weight? Once you have identified them, make a new column that is a ratio of `weight` to `hindfoot_length`. Make a plot that shows the range of this new ratio and fill by sex.

```r
deserts %>% 
  filter(weight!="NA") %>% 
  group_by(species) %>% 
  summarise(average_wt=mean(weight)) %>% 
  arrange(desc(average_wt))
```

```
## # A tibble: 22 × 2
##    species      average_wt
##    <chr>             <dbl>
##  1 albigula          159. 
##  2 spectabilis       120. 
##  3 spilosoma          93.5
##  4 hispidus           65.6
##  5 fulviventer        58.9
##  6 ochrognathus       55.4
##  7 ordii              48.9
##  8 merriami           43.2
##  9 baileyi            31.7
## 10 leucogaster        31.6
## # … with 12 more rows
```

```r
deserts_ratio<- deserts %>% 
  filter(species=="albigula" | species=="spectabilis") %>% 
  filter(weight!="NA") %>% 
  filter(hindfoot_length!="NA") %>% 
  mutate(hindfoot_weight_ratio=weight/ hindfoot_length)
deserts_ratio
```

```
## # A tibble: 3,072 × 14
##    record…¹ month   day  year plot_id speci…² sex   hindf…³ weight genus species
##       <dbl> <dbl> <dbl> <dbl>   <dbl> <chr>   <chr>   <dbl>  <dbl> <chr> <chr>  
##  1      357    11    12  1977       9 DS      F          50    117 Dipo… specta…
##  2      362    11    12  1977       1 DS      F          51    121 Dipo… specta…
##  3      367    11    12  1977      20 DS      M          51    115 Dipo… specta…
##  4      377    11    12  1977       9 DS      F          48    120 Dipo… specta…
##  5      381    11    13  1977      17 DS      F          48    118 Dipo… specta…
##  6      383    11    13  1977      11 DS      F          52    126 Dipo… specta…
##  7      385    11    13  1977      17 DS      M          50    132 Dipo… specta…
##  8      392    11    13  1977      11 DS      F          53    122 Dipo… specta…
##  9      394    11    13  1977       4 DS      F          48    107 Dipo… specta…
## 10      398    11    13  1977       4 DS      F          50    115 Dipo… specta…
## # … with 3,062 more rows, 3 more variables: taxa <chr>, plot_type <chr>,
## #   hindfoot_weight_ratio <dbl>, and abbreviated variable names ¹​record_id,
## #   ²​species_id, ³​hindfoot_length
```
…
