…
Problem 2. (1 point) Use the function of your choice to summarize the data.

```r
structure(ecosphere)
```

```
## # A tibble: 551 × 21
##    order    family commo…¹ scien…² diet  life_…³ habitat urban…⁴ migra…⁵ log10…⁶
##    <chr>    <chr>  <chr>   <chr>   <chr> <chr>   <chr>   <chr>   <chr>     <dbl>
##  1 Anserif… Anati… "Ameri… Anas r… Vege… Long    Wetland No      Short      3.09
##  2 Anserif… Anati… "Ameri… Anas a… Vege… Middle  Wetland No      Short      2.88
##  3 Anserif… Anati… "Barro… Buceph… Inve… Middle  Wetland No      Modera…    2.96
##  4 Anserif… Anati… "Black… Branta… Vege… Long    Wetland No      Modera…    3.11
##  5 Anserif… Anati… "Black… Melani… Inve… Middle  Wetland No      Modera…    3.02
##  6 Anserif… Anati… "Black… Dendro… Vege… Short   Wetland No      Withdr…    2.88
##  7 Anserif… Anati… "Blue-… Anas d… Vege… Middle  Wetland No      Modera…    2.56
##  8 Anserif… Anati… "Buffl… Buceph… Inve… Middle  Wetland No      Short      2.6 
##  9 Anserif… Anati… "Cackl… Branta… Vege… Middle  Wetland Yes     Short      3.45
## 10 Anserif… Anati… "Canva… Aythya… Vege… Middle  Wetland No      Short      3.08
## # … with 541 more rows, 11 more variables: mean_eggs_per_clutch <dbl>,
## #   mean_age_at_sexual_maturity <dbl>, population_size <dbl>,
## #   winter_range_area <dbl>, range_in_cbc <dbl>, strata <dbl>, circles <dbl>,
## #   feeder_bird <chr>, median_trend <dbl>, lower_95_percent_ci <dbl>,
## #   upper_95_percent_ci <dbl>, and abbreviated variable names ¹​common_name,
## #   ²​scientific_name, ³​life_expectancy, ⁴​urban_affiliate, ⁵​migratory_strategy,
## #   ⁶​log10_mass
```
…
```r
ducks <- filter(ecosphere, family=="Anatidae")
ducks
```

```
## # A tibble: 44 × 21
##    order    family commo…¹ scien…² diet  life_…³ habitat urban…⁴ migra…⁵ log10…⁶
##    <chr>    <chr>  <chr>   <chr>   <chr> <chr>   <chr>   <chr>   <chr>     <dbl>
##  1 Anserif… Anati… "Ameri… Anas r… Vege… Long    Wetland No      Short      3.09
##  2 Anserif… Anati… "Ameri… Anas a… Vege… Middle  Wetland No      Short      2.88
##  3 Anserif… Anati… "Barro… Buceph… Inve… Middle  Wetland No      Modera…    2.96
##  4 Anserif… Anati… "Black… Branta… Vege… Long    Wetland No      Modera…    3.11
##  5 Anserif… Anati… "Black… Melani… Inve… Middle  Wetland No      Modera…    3.02
##  6 Anserif… Anati… "Black… Dendro… Vege… Short   Wetland No      Withdr…    2.88
##  7 Anserif… Anati… "Blue-… Anas d… Vege… Middle  Wetland No      Modera…    2.56
##  8 Anserif… Anati… "Buffl… Buceph… Inve… Middle  Wetland No      Short      2.6 
##  9 Anserif… Anati… "Cackl… Branta… Vege… Middle  Wetland Yes     Short      3.45
## 10 Anserif… Anati… "Canva… Aythya… Vege… Middle  Wetland No      Short      3.08
## # … with 34 more rows, 11 more variables: mean_eggs_per_clutch <dbl>,
## #   mean_age_at_sexual_maturity <dbl>, population_size <dbl>,
## #   winter_range_area <dbl>, range_in_cbc <dbl>, strata <dbl>, circles <dbl>,
## #   feeder_bird <chr>, median_trend <dbl>, lower_95_percent_ci <dbl>,
## #   upper_95_percent_ci <dbl>, and abbreviated variable names ¹​common_name,
## #   ²​scientific_name, ³​life_expectancy, ⁴​urban_affiliate, ⁵​migratory_strategy,
## #   ⁶​log10_mass
```



```r
ducks %>% 
  select(!order) %>% 
  select(!family)
```

```
## # A tibble: 44 × 19
##    commo…¹ scien…² diet  life_…³ habitat urban…⁴ migra…⁵ log10…⁶ mean_…⁷ mean_…⁸
##    <chr>   <chr>   <chr> <chr>   <chr>   <chr>   <chr>     <dbl>   <dbl>   <dbl>
##  1 "Ameri… Anas r… Vege… Long    Wetland No      Short      3.09     9       1  
##  2 "Ameri… Anas a… Vege… Middle  Wetland No      Short      2.88     7.5     1  
##  3 "Barro… Buceph… Inve… Middle  Wetland No      Modera…    2.96    10.5     3  
##  4 "Black… Branta… Vege… Long    Wetland No      Modera…    3.11     3.5     2.5
##  5 "Black… Melani… Inve… Middle  Wetland No      Modera…    3.02     9.5     2  
##  6 "Black… Dendro… Vege… Short   Wetland No      Withdr…    2.88    13.5     1  
##  7 "Blue-… Anas d… Vege… Middle  Wetland No      Modera…    2.56    10       0.6
##  8 "Buffl… Buceph… Inve… Middle  Wetland No      Short      2.6      8.5     2  
##  9 "Cackl… Branta… Vege… Middle  Wetland Yes     Short      3.45     5       1  
## 10 "Canva… Aythya… Vege… Middle  Wetland No      Short      3.08     8       1  
## # … with 34 more rows, 9 more variables: population_size <dbl>,
## #   winter_range_area <dbl>, range_in_cbc <dbl>, strata <dbl>, circles <dbl>,
## #   feeder_bird <chr>, median_trend <dbl>, lower_95_percent_ci <dbl>,
## #   upper_95_percent_ci <dbl>, and abbreviated variable names ¹​common_name,
## #   ²​scientific_name, ³​life_expectancy, ⁴​urban_affiliate, ⁵​migratory_strategy,
## #   ⁶​log10_mass, ⁷​mean_eggs_per_clutch, ⁸​mean_age_at_sexual_maturity
```
…
Problem 12. (4 points) Use the `ecosphere` data to perform one exploratory analysis of your choice. The analysis must have a minimum of three lines and two functions. You must also clearly state the question you are attempting to answer.

```r
structure(ecosphere)
```

```
## # A tibble: 551 × 21
##    order    family commo…¹ scien…² diet  life_…³ habitat urban…⁴ migra…⁵ log10…⁶
##    <chr>    <chr>  <chr>   <chr>   <chr> <chr>   <chr>   <chr>   <chr>     <dbl>
##  1 Anserif… Anati… "Ameri… Anas r… Vege… Long    Wetland No      Short      3.09
##  2 Anserif… Anati… "Ameri… Anas a… Vege… Middle  Wetland No      Short      2.88
##  3 Anserif… Anati… "Barro… Buceph… Inve… Middle  Wetland No      Modera…    2.96
##  4 Anserif… Anati… "Black… Branta… Vege… Long    Wetland No      Modera…    3.11
##  5 Anserif… Anati… "Black… Melani… Inve… Middle  Wetland No      Modera…    3.02
##  6 Anserif… Anati… "Black… Dendro… Vege… Short   Wetland No      Withdr…    2.88
##  7 Anserif… Anati… "Blue-… Anas d… Vege… Middle  Wetland No      Modera…    2.56
##  8 Anserif… Anati… "Buffl… Buceph… Inve… Middle  Wetland No      Short      2.6 
##  9 Anserif… Anati… "Cackl… Branta… Vege… Middle  Wetland Yes     Short      3.45
## 10 Anserif… Anati… "Canva… Aythya… Vege… Middle  Wetland No      Short      3.08
## # … with 541 more rows, 11 more variables: mean_eggs_per_clutch <dbl>,
## #   mean_age_at_sexual_maturity <dbl>, population_size <dbl>,
## #   winter_range_area <dbl>, range_in_cbc <dbl>, strata <dbl>, circles <dbl>,
## #   feeder_bird <chr>, median_trend <dbl>, lower_95_percent_ci <dbl>,
## #   upper_95_percent_ci <dbl>, and abbreviated variable names ¹​common_name,
## #   ²​scientific_name, ³​life_expectancy, ⁴​urban_affiliate, ⁵​migratory_strategy,
## #   ⁶​log10_mass
```

What species that eats only vegetation has the highest 'mean_eggs_per_clutch'?

```r
ecosphere %>% 
  group_by(diet) %>% 
  filter(diet=="Vegetation") %>% 
  group_by(scientific_name) %>% 
  summarise(eggs= sum(mean_eggs_per_clutch)) %>% 
  arrange(desc(eggs))
```

```
## # A tibble: 31 × 2
##    scientific_name           eggs
##    <chr>                    <dbl>
##  1 Dendrocygna autumnalis    13.5
##  2 Dendrocygna bicolor       13  
##  3 Tympanuchus phasianellus  11  
##  4 Bonasa umbellus           10.5
##  5 Anas cyanoptera           10  
##  6 Anas discors              10  
##  7 Aythya affinis            10  
##  8 Aythya americana          10  
##  9 Aythya collaris           10  
## 10 Aythya fuligula           10  
## # … with 21 more rows
```
…
