…
```r
structure(surgery)
```

```
## # A tibble: 32,001 × 25
##    ahrq_ccs   age gender race      asa_s…¹   bmi basel…² basel…³ basel…⁴ basel…⁵
##    <chr>    <dbl> <chr>  <chr>     <chr>   <dbl> <chr>   <chr>   <chr>   <chr>  
##  1 <Other>   67.8 M      Caucasian I-II     28.0 No      Yes     No      No     
##  2 <Other>   39.5 F      Caucasian I-II     37.8 No      Yes     No      No     
##  3 <Other>   56.5 F      Caucasian I-II     19.6 No      No      No      No     
##  4 <Other>   71   M      Caucasian III      32.2 No      Yes     No      No     
##  5 <Other>   56.3 M      African … I-II     24.3 Yes     No      No      No     
##  6 <Other>   57.7 F      Caucasian I-II     40.3 No      Yes     No      No     
##  7 <Other>   56.6 M      Other     IV-VI    64.6 No      Yes     No      Yes    
##  8 <Other>   64.2 F      Caucasian III      43.2 No      Yes     No      No     
##  9 <Other>   66.2 M      Caucasian III      28.0 No      Yes     No      No     
## 10 <Other>   20.1 F      Caucasian I-II     27.4 Yes     No      No      No     
## # … with 31,991 more rows, 15 more variables: baseline_digestive <chr>,
## #   baseline_osteoart <chr>, baseline_psych <chr>, baseline_pulmonary <chr>,
## #   baseline_charlson <dbl>, mortality_rsi <dbl>, complication_rsi <dbl>,
## #   ccsmort30rate <dbl>, ccscomplicationrate <dbl>, hour <dbl>, dow <chr>,
## #   month <chr>, moonphase <chr>, mort30 <chr>, complication <chr>, and
## #   abbreviated variable names ¹​asa_status, ²​baseline_cancer, ³​baseline_cvd,
## #   ⁴​baseline_dementia, ⁵​baseline_diabetes
```
…
9. (4 points) When is the best month to have surgery? Make a chart that shows the 30-day mortality and complications for the patients by month. `mort30` is the variable that shows whether or not a patient survived 30 days post-operation.

```r
surgery$mort30<- ifelse(surgery$mort30=="Yes", 1,0)
surgery
```

```
## # A tibble: 32,001 × 25
##    ahrq_ccs   age gender race      asa_s…¹   bmi basel…² basel…³ basel…⁴ basel…⁵
##    <chr>    <dbl> <chr>  <chr>     <chr>   <dbl> <chr>   <chr>   <chr>   <chr>  
##  1 <Other>   67.8 M      Caucasian I-II     28.0 No      Yes     No      No     
##  2 <Other>   39.5 F      Caucasian I-II     37.8 No      Yes     No      No     
##  3 <Other>   56.5 F      Caucasian I-II     19.6 No      No      No      No     
##  4 <Other>   71   M      Caucasian III      32.2 No      Yes     No      No     
##  5 <Other>   56.3 M      African … I-II     24.3 Yes     No      No      No     
##  6 <Other>   57.7 F      Caucasian I-II     40.3 No      Yes     No      No     
##  7 <Other>   56.6 M      Other     IV-VI    64.6 No      Yes     No      Yes    
##  8 <Other>   64.2 F      Caucasian III      43.2 No      Yes     No      No     
##  9 <Other>   66.2 M      Caucasian III      28.0 No      Yes     No      No     
## 10 <Other>   20.1 F      Caucasian I-II     27.4 Yes     No      No      No     
## # … with 31,991 more rows, 15 more variables: baseline_digestive <chr>,
## #   baseline_osteoart <chr>, baseline_psych <chr>, baseline_pulmonary <chr>,
## #   baseline_charlson <dbl>, mortality_rsi <dbl>, complication_rsi <dbl>,
## #   ccsmort30rate <dbl>, ccscomplicationrate <dbl>, hour <dbl>, dow <chr>,
## #   month <chr>, moonphase <chr>, mort30 <dbl>, complication <chr>, and
## #   abbreviated variable names ¹​asa_status, ²​baseline_cancer, ³​baseline_cvd,
## #   ⁴​baseline_dementia, ⁵​baseline_diabetes
```

```r
surgery$complication <-ifelse(surgery$complication=="Yes", 1,0)
surgery
```

```
## # A tibble: 32,001 × 25
##    ahrq_ccs   age gender race      asa_s…¹   bmi basel…² basel…³ basel…⁴ basel…⁵
##    <chr>    <dbl> <chr>  <chr>     <chr>   <dbl> <chr>   <chr>   <chr>   <chr>  
##  1 <Other>   67.8 M      Caucasian I-II     28.0 No      Yes     No      No     
##  2 <Other>   39.5 F      Caucasian I-II     37.8 No      Yes     No      No     
##  3 <Other>   56.5 F      Caucasian I-II     19.6 No      No      No      No     
##  4 <Other>   71   M      Caucasian III      32.2 No      Yes     No      No     
##  5 <Other>   56.3 M      African … I-II     24.3 Yes     No      No      No     
##  6 <Other>   57.7 F      Caucasian I-II     40.3 No      Yes     No      No     
##  7 <Other>   56.6 M      Other     IV-VI    64.6 No      Yes     No      Yes    
##  8 <Other>   64.2 F      Caucasian III      43.2 No      Yes     No      No     
##  9 <Other>   66.2 M      Caucasian III      28.0 No      Yes     No      No     
## 10 <Other>   20.1 F      Caucasian I-II     27.4 Yes     No      No      No     
## # … with 31,991 more rows, 15 more variables: baseline_digestive <chr>,
## #   baseline_osteoart <chr>, baseline_psych <chr>, baseline_pulmonary <chr>,
## #   baseline_charlson <dbl>, mortality_rsi <dbl>, complication_rsi <dbl>,
## #   ccsmort30rate <dbl>, ccscomplicationrate <dbl>, hour <dbl>, dow <chr>,
## #   month <chr>, moonphase <chr>, mort30 <dbl>, complication <dbl>, and
## #   abbreviated variable names ¹​asa_status, ²​baseline_cancer, ³​baseline_cvd,
## #   ⁴​baseline_dementia, ⁵​baseline_diabetes
```
…
