…
```r
fisheries$country <-as.factor(fisheries$country) 
fisheries$isscaap_group_number <-as.factor(fisheries$isscaap_group_number)
fisheries$asfis_species_number <-as.factor(fisheries$asfis_species_number)
fisheries$fao_major_fishing_area <-as.factor(fisheries$fao_major_fishing_area)
structure(fisheries)
```

```
## # A tibble: 17,692 × 71
##    country common_…¹ issca…² issca…³ asfis…⁴ asfis…⁵ fao_m…⁶ measure x1950 x1951
##    <fct>   <chr>     <fct>   <chr>   <fct>   <chr>   <fct>   <chr>   <chr> <chr>
##  1 Albania Angelsha… 38      Sharks… 10903X… Squati… 37      Quanti… <NA>  <NA> 
##  2 Albania Atlantic… 36      Tunas,… 175010… Sarda … 37      Quanti… <NA>  <NA> 
##  3 Albania Barracud… 37      Miscel… 177100… Sphyra… 37      Quanti… <NA>  <NA> 
##  4 Albania Blue and… 45      Shrimp… 228020… Ariste… 37      Quanti… <NA>  <NA> 
##  5 Albania Blue whi… 32      Cods, … 148040… Microm… 37      Quanti… <NA>  <NA> 
##  6 Albania Bluefish  37      Miscel… 170202… Pomato… 37      Quanti… <NA>  <NA> 
##  7 Albania Bogue     33      Miscel… 170392… Boops … 37      Quanti… <NA>  <NA> 
##  8 Albania Caramote… 45      Shrimp… 228010… Penaeu… 37      Quanti… <NA>  <NA> 
##  9 Albania Catshark… 38      Sharks… 108010… Scylio… 37      Quanti… <NA>  <NA> 
## 10 Albania Common c… 57      Squids… 321020… Sepia … 37      Quanti… <NA>  <NA> 
## # … with 17,682 more rows, 61 more variables: x1952 <chr>, x1953 <chr>,
## #   x1954 <chr>, x1955 <chr>, x1956 <chr>, x1957 <chr>, x1958 <chr>,
## #   x1959 <chr>, x1960 <chr>, x1961 <chr>, x1962 <chr>, x1963 <chr>,
## #   x1964 <chr>, x1965 <chr>, x1966 <chr>, x1967 <chr>, x1968 <chr>,
## #   x1969 <chr>, x1970 <chr>, x1971 <chr>, x1972 <chr>, x1973 <chr>,
## #   x1974 <chr>, x1975 <chr>, x1976 <chr>, x1977 <chr>, x1978 <chr>,
## #   x1979 <chr>, x1980 <chr>, x1981 <chr>, x1982 <chr>, x1983 <chr>, …
```
…
```r
fisheries %>% 
  count(country, sort = T)
```

```
## # A tibble: 204 × 2
##    country                      n
##    <fct>                    <int>
##  1 Spain                      915
##  2 Portugal                   763
##  3 United States of America   627
##  4 Korea, Republic of         620
##  5 Japan                      611
##  6 Russian Federation         523
##  7 Un. Sov. Soc. Rep.         515
##  8 France                     489
##  9 United Kingdom             362
## 10 Taiwan Province of China   310
## # … with 194 more rows
```




4. Refocus the data only to include country, isscaap_taxonomic_group, asfis_species_name, asfis_species_number, year, catch.

```r
fisheries_tidy %>% 
  select("country", "isscaap_taxonomic_group", "asfis_species_name", "asfis_species_number", "year", "catch" )
```

```
## # A tibble: 376,771 × 6
##    country isscaap_taxonomic_group asfis_species_name asfis_specie…¹  year catch
##    <fct>   <chr>                   <chr>              <fct>          <dbl> <dbl>
##  1 Albania Sharks, rays, chimaeras Squatinidae        10903XXXXX      1995    NA
##  2 Albania Sharks, rays, chimaeras Squatinidae        10903XXXXX      1996    53
##  3 Albania Sharks, rays, chimaeras Squatinidae        10903XXXXX      1997    20
##  4 Albania Sharks, rays, chimaeras Squatinidae        10903XXXXX      1998    31
##  5 Albania Sharks, rays, chimaeras Squatinidae        10903XXXXX      1999    30
##  6 Albania Sharks, rays, chimaeras Squatinidae        10903XXXXX      2000    30
##  7 Albania Sharks, rays, chimaeras Squatinidae        10903XXXXX      2001    16
##  8 Albania Sharks, rays, chimaeras Squatinidae        10903XXXXX      2002    79
##  9 Albania Sharks, rays, chimaeras Squatinidae        10903XXXXX      2003     1
## 10 Albania Sharks, rays, chimaeras Squatinidae        10903XXXXX      2004     4
## # … with 376,761 more rows, and abbreviated variable name ¹​asfis_species_number
```

5. Based on the asfis_species_number, how many distinct fish species were caught as part of these data?



```r
fisheries_tidy %>%
  filter(!is.na(catch)) %>% 
  count(asfis_species_number)
```

```
## # A tibble: 1,491 × 2
##    asfis_species_number     n
##    <fct>                <int>
##  1 1020100101              91
##  2 1020100201               1
##  3 10201XXXXX              23
##  4 1030300603               3
##  5 10303XXXXX              31
##  6 1050200201              43
##  7 1050200301               3
##  8 1050200502              24
##  9 1060100301              92
## 10 1060200501              17
## # … with 1,481 more rows
```


6. Which country had the largest overall catch in the year 2000?

```r
fisheries_tidy %>%
  filter(year==2000) %>% 
  group_by(country) %>%
  summarise(sum_catch = sum(catch, na.rm=T)) %>% 
  arrange(desc(sum_catch))
```

```
## # A tibble: 193 × 2
##    country                  sum_catch
##    <fct>                        <dbl>
##  1 China                        25899
##  2 Russian Federation           12181
##  3 United States of America     11762
##  4 Japan                         8510
##  5 Indonesia                     8341
##  6 Peru                          7443
##  7 Chile                         6906
##  8 India                         6351
##  9 Thailand                      6243
## 10 Korea, Republic of            6124
## # … with 183 more rows
```

7. Which country caught the most sardines (_Sardina pilchardus_) between the years 1990-2000?

```r
fisheries_tidy %>% 
  filter(between(year, "1990", "2000") ) %>% 
  filter(asfis_species_name=="Sardina pilchardus") %>% 
  group_by(country) %>% 
  summarise(sp_catch = sum(catch, na.rm=T)) %>%
  arrange(desc(sp_catch))
```

```
## # A tibble: 37 × 2
##    country               sp_catch
##    <fct>                    <dbl>
##  1 Morocco                   7470
##  2 Spain                     3507
##  3 Russian Federation        1639
##  4 Ukraine                   1030
##  5 France                     966
##  6 Portugal                   818
##  7 Greece                     528
##  8 Italy                      507
##  9 Serbia and Montenegro      478
## 10 Denmark                    477
## # … with 27 more rows
```

8. Which five countries caught the most cephalopods between 2008-2012?

```r
fisheries_tidy %>%
  filter(between(year, "2008", "2012")) %>% 
  filter(isscaap_taxonomic_group=="Squids, cuttlefishes, octopuses") %>% 
  group_by(country) %>% 
  summarise(c_catch = sum(catch, na.rm=T)) %>%
  arrange(desc(c_catch))
```

```
## # A tibble: 122 × 2
##    country                  c_catch
##    <fct>                      <dbl>
##  1 China                       8349
##  2 Korea, Republic of          3480
##  3 Peru                        3422
##  4 Japan                       3248
##  5 Chile                       2775
##  6 United States of America    2417
##  7 Indonesia                   1622
##  8 Taiwan Province of China    1394
##  9 Spain                       1147
## 10 France                      1138
## # … with 112 more rows
```


9. Which species had the highest catch total between 2008-2012? (hint: Osteichthyes is not a species)

```r
fisheries_tidy %>%
  filter(between(year, "2008", "2012")) %>% 
  group_by(asfis_species_name) %>% 
  summarise(total_catch = sum(catch, na.rm=T)) %>%
  arrange(desc(total_catch))
```

```
## # A tibble: 1,472 × 2
##    asfis_species_name    total_catch
##    <chr>                       <dbl>
##  1 Osteichthyes               107808
##  2 Theragra chalcogramma       41075
##  3 Engraulis ringens           35523
##  4 Katsuwonus pelamis          32153
##  5 Trichiurus lepturus         30400
##  6 Clupea harengus             28527
##  7 Thunnus albacares           20119
##  8 Scomber japonicus           14723
##  9 Gadus morhua                13253
## 10 Thunnus alalunga            12019
## # … with 1,462 more rows
```

10. Use the data to do at least one analysis of your choice.


```r
fisheries_tidy %>%
  filter(between(year, "2008", "2012")) %>% 
  filter(isscaap_taxonomic_group=="Flounders, halibuts, soles") %>% 
  group_by(country) %>% 
  summarise(i_catch = sum(catch, na.rm=T)) %>%
  arrange(desc(i_catch))
```

```
## # A tibble: 94 × 2
##    country                  i_catch
##    <fct>                      <dbl>
##  1 United States of America    4955
##  2 Portugal                    2606
##  3 France                      1771
##  4 Russian Federation          1511
##  5 Norway                      1497
##  6 Spain                       1368
##  7 Morocco                      984
##  8 Germany                      864
##  9 United Kingdom               789
## 10 Denmark                      772
## # … with 84 more rows
```
…
