…
6. How many distinct wolf populations are included in this study? Mae a new object that restricts the data to the wolf populations in the lower 48 US states.  

```r
structure(wolves)
```

```
## # A tibble: 1,986 × 23
##    pop     year age.cat sex   color   lat  long habitat human pop.dens…¹ pack.…²
##    <chr>  <dbl> <chr>   <chr> <chr> <dbl> <dbl>   <dbl> <dbl>      <dbl>   <dbl>
##  1 AK.PEN  2006 S       F     G      57.0 -158.    254.  10.4          8    8.78
##  2 AK.PEN  2006 S       M     G      57.0 -158.    254.  10.4          8    8.78
##  3 AK.PEN  2006 A       F     G      57.0 -158.    254.  10.4          8    8.78
##  4 AK.PEN  2006 S       M     B      57.0 -158.    254.  10.4          8    8.78
##  5 AK.PEN  2006 A       M     B      57.0 -158.    254.  10.4          8    8.78
##  6 AK.PEN  2006 A       M     G      57.0 -158.    254.  10.4          8    8.78
##  7 AK.PEN  2006 A       F     G      57.0 -158.    254.  10.4          8    8.78
##  8 AK.PEN  2006 P       M     G      57.0 -158.    254.  10.4          8    8.78
##  9 AK.PEN  2006 S       F     G      57.0 -158.    254.  10.4          8    8.78
## 10 AK.PEN  2006 P       M     G      57.0 -158.    254.  10.4          8    8.78
## # … with 1,976 more rows, 12 more variables: standard.habitat <dbl>,
## #   standard.human <dbl>, standard.pop <dbl>, standard.packsize <dbl>,
## #   standard.latitude <dbl>, standard.longitude <dbl>, cav.binary <dbl>,
## #   cdv.binary <dbl>, cpv.binary <dbl>, chv.binary <dbl>, neo.binary <dbl>,
## #   toxo.binary <dbl>, and abbreviated variable names ¹​pop.density, ²​pack.size
```
…
